^C:\USERS\MANGESH\DOCUMENTS\VISUAL STUDIO 2015\PROJECTS\DIRECTX-WINDOW\D3DWINDOW.CPP
C:\USERS\MANGESH\DOCUMENTS\VISUAL STUDIO 2015\PROJECTS\DIRECTX-WINDOW\DEBUG\VC140.PDB
C:\USERS\MANGESH\DOCUMENTS\VISUAL STUDIO 2015\PROJECTS\DIRECTX-WINDOW\DEBUG\VC140.IDB
C:\USERS\MANGESH\DOCUMENTS\VISUAL STUDIO 2015\PROJECTS\DIRECTX-WINDOW\DEBUG\D3DWINDOW.OBJ
^C:\USERS\MANGESH\DOCUMENTS\VISUAL STUDIO 2015\PROJECTS\DIRECTX-ORTHO_TRIANGLE\D3DWINDOW.CPP
C:\USERS\MANGESH\DOCUMENTS\VISUAL STUDIO 2015\PROJECTS\DIRECTX-ORTHO_TRIANGLE\DEBUG\VC140.PDB
C:\USERS\MANGESH\DOCUMENTS\VISUAL STUDIO 2015\PROJECTS\DIRECTX-ORTHO_TRIANGLE\DEBUG\VC140.IDB
C:\USERS\MANGESH\DOCUMENTS\VISUAL STUDIO 2015\PROJECTS\DIRECTX-ORTHO_TRIANGLE\DEBUG\D3DWINDOW.OBJ
^C:\USERS\MANGESH\DOCUMENTS\VISUAL STUDIO 2015\PROJECTS\DIRECTX-PERSPECTIVE_TRIANGLE\D3DWINDOW.CPP
C:\USERS\MANGESH\DOCUMENTS\VISUAL STUDIO 2015\PROJECTS\DIRECTX-PERSPECTIVE_TRIANGLE\DEBUG\VC140.PDB
C:\USERS\MANGESH\DOCUMENTS\VISUAL STUDIO 2015\PROJECTS\DIRECTX-PERSPECTIVE_TRIANGLE\DEBUG\VC140.IDB
C:\USERS\MANGESH\DOCUMENTS\VISUAL STUDIO 2015\PROJECTS\DIRECTX-PERSPECTIVE_TRIANGLE\DEBUG\D3DWINDOW.OBJ
