Log file successfully Opened.
false :
false :
false :
false :
false :
false :
false :
false :
false :
false :
false :
false :
false :
false :
false :
false :
false :
false :
false :
false :
false :
false :
false :
false :
false :
false :
false :
false :
false :
false :
false :
false :
false :
false :
false :
false :
false :
false :
false :
false :
false :
false :
false :
false :
false :
false :
false :
false :
false :
false :
false :
false :
false :
false :
false :
false :
false :
false :
false :
false :
false :
false :
false :
false :
false :
false :
false :
false :
false :
false :
false :
false :
false :
false :
false :
false :
false :
false :
false :
false :
false :
false :
false :
false :
false :
false :
false :
false :
false :
false :
false :
false :
false :
false :
false :
false :
false :
false :
false :
false :
false :
false :
false :
false :
false :
false :
true :
true :
true :
true :
true :
true :
true :
true :
true :
true :
true :
true :
true :
true :
true :
true :
true :
true :
true :
true :
true :
true :
true :
true :
true :
true :
true :
true :
true :
true :
true :
true :
true :
true :
true :
true :
true :
true :
true :
true :
true :
true :
true :
true :
true :
true :
true :
true :
true :
true :
true :
true :
true :
true :
true :
true :
true :
true :
true :
true :
true :
true :
true :
true :
true :
true :
true :
true :
true :
true :
true :
true :
true :
true :
true :
true :
true :
true :
true :
true :
true :
true :
true :
true :
true :
true :
true :
true :
true :
true :
true :
true :
true :
true :
true :
true :
true :
true :
true :
true :
true :
true :
true :
true :
true :
true :
true :
true :
true :
true :
true :
true :
true :
true :
true :
true :
true :
true :
true :
true :
true :
true :
true :
true :
true :
true :
true :
true :
true :
true :
true :
true :
true :
true :
true :
true :
true :
true :
true :
true :
true :
true :
true :
true :
true :
true :
true :
true :
true :
true :
true :
true :
true :
true :
true :
true :
true :
true :
true :
true :
true :
true :
true :
true :
true :
true :
true :
true :
true :
true :
true :
true :
true :
true :
true :
true :
true :
true :
true :
true :
true :
true :
true :
true :
true :
true :
true :
true :
true :
true :
true :
true :
true :
true :
true :
true :
true :
true :
true :
true :
true :
true :
true :
true :
true :
true :
true :
true :
true :
true :
true :
true :
true :
true :
true :
true :
true :
true :
true :
true :
true :
true :
true :
true :
true :
true :
true :
true :
true :
true :
true :
true :
true :
true :
true :
true :
true :
true :
true :
true :
true :
true :
true :
true :
true :
true :
true :
true :
true :
true :
true :
true :
true :
true :
true :
true :
true :
true :
true :
true :
true :
true :
true :
true :
true :
true :
true :
true :
true :
true :
true :
true :
true :
true :
true :
true :
true :
true :
true :
true :
true :
true :
true :
true :
true :
true :
true :
true :
true :
true :
true :
true :
true :
true :
true :
true :
true :
true :
true :
true :
true :
true :
true :
true :
true :
true :
true :
true :
true :
true :
true :
true :
true :
true :
true :
true :
true :
true :
true :
true :
true :
true :
true :
true :
true :
true :
true :
true :
true :
true :
true :
true :
true :
true :
true :
true :
true :
true :
true :
true :
true :
true :
true :
true :
true :
true :
true :
true :
true :
true :
true :
true :
true :
true :
true :
true :
true :
true :
true :
true :
true :
true :
true :
true :
true :
true :
true :
true :
true :
true :
true :
true :
true :
true :
true :
true :
true :
true :
true :
true :
true :
true :
true :
true :
true :
true :
true :
true :
true :
true :
true :
true :
true :
true :
true :
true :
true :
true :
true :
true :
true :
true :
true :
true :
true :
true :
true :
true :
true :
true :
true :
true :
true :
true :
true :
true :
true :
true :
true :
true :
true :
true :
true :
true :
true :
true :
true :
true :
true :
true :
true :
true :
true :
true :
true :
true :
true :
true :
true :
true :
true :
true :
true :
true :
true :
true :
true :
true :
true :
true :
true :
true :
true :
true :
true :
true :
true :
true :
true :
true :
true :
true :
true :
true :
true :
true :
true :
true :
true :
true :
true :
true :
true :
true :
true :
true :
true :
true :
true :
true :
true :
true :
true :
true :
true :
true :
true :
true :
true :
true :
true :
true :
true :
true :
true :
true :
true :
true :
true :
true :
true :
true :
true :
true :
true :
true :
true :
true :
true :
true :
true :
true :
true :
true :
true :
true :
true :
true :
true :
true :
true :
true :
true :
true :
true :
true :
true :
true :
true :
true :
true :
true :
true :
true :
true :
true :
true :
true :
true :
true :
true :
true :
true :
true :
true :
true :
true :
true :
true :
true :
true :
true :
true :
true :
true :
true :
true :
true :
true :
true :
true :
true :
true :
true :
true :
true :
true :
true :
true :
true :
true :
true :
true :
true :
true :
true :
true :
true :
true :
true :
true :
true :
true :
true :
true :
true :
true :
true :
true :
true :
true :
true :
true :
true :
true :
true :
true :
true :
true :
true :
true :
true :
true :
true :
true :
true :
true :
true :
true :
true :
true :
true :
true :
true :
true :
true :
true :
true :
true :
true :
true :
true :
true :
true :
true :
true :
true :
true :
true :
true :
true :
true :
true :
true :
true :
true :
true :
true :
true :
true :
true :
true :
true :
true :
true :
true :
true :
true :
true :
true :
true :
true :
true :
true :
true :
true :
true :
true :
true :
true :
true :
true :
true :
true :
true :
true :
true :
true :
true :
true :
true :
true :
true :
true :
true :
true :
true :
true :
true :
true :
true :
true :
true :
true :
true :
true :
true :
true :
true :
true :
true :
true :
true :
true :
true :
true :
true :
true :
true :
true :
true :
true :
true :
true :
true :
true :
true :
true :
true :
true :
true :
true :
true :
true :
true :
true :
true :
true :
true :
true :
true :
true :
true :
true :
true :
true :
true :
true :
true :
true :
true :
true :
true :
true :
true :
true :
true :
true :
true :
true :
true :
true :
true :
true :
true :
true :
true :
true :
true :
true :
true :
true :
true :
true :
true :
true :
true :
true :
true :
true :
true :
true :
true :
true :
true :
true :
true :
true :
true :
true :
true :
true :
true :
true :
true :
true :
true :
true :
true :
true :
true :
true :
true :
true :
true :
true :
true :
true :
true :
true :
true :
true :
true :
true :
true :
true :
true :
true :
true :
true :
true :
true :
true :
true :
true :
true :
true :
true :
true :
true :
true :
true :
true :
true :
true :
true :
true :
true :
true :
true :
true :
true :
true :
true :
true :
true :
true :
true :
true :
true :
true :
true :
true :
true :
true :
true :
true :
true :
true :
true :
true :
true :
true :
true :
true :
true :
true :
true :
true :
true :
true :
true :
true :
true :
true :
true :
true :
true :
true :
true :
true :
true :
true :
true :
true :
true :
true :
true :
true :
true :
true :
true :
true :
true :
true :
true :
true :
true :
true :
true :
true :
true :
true :
true :
true :
true :
true :
true :
true :
true :
true :
true :
true :
true :
true :
true :
true :
true :
true :
true :
true :
true :
true :
true :
true :
true :
true :
true :
true :
true :
true :
true :
true :
true :
true :
true :
true :
true :
true :
true :
true :
true :
true :
true :
true :
true :
true :
true :
true :
true :
true :
true :
true :
true :
true :
true :
true :
true :
true :
true :
true :
true :
true :
true :
true :
true :
true :
true :
true :
true :
true :
true :
true :
true :
true :
true :
true :
true :
true :
true :
true :
true :
true :
true :
true :
true :
true :
true :
true :
true :
true :
true :
true :
true :
true :
true :
true :
true :
true :
true :
true :
true :
true :
true :
true :
true :
true :
true :
true :
true :
true :
true :
true :
true :
true :
true :
true :
true :
true :
true :
true :
true :
true :
true :
true :
true :
true :
true :
true :
true :
true :
true :
true :
true :
true :
true :
true :
true :
true :
true :
true :
true :
true :
true :
true :
true :
true :
true :
true :
true :
true :
true :
true :
true :
true :
true :
true :
true :
true :
true :
true :
true :
true :
true :
true :
true :
true :
true :
true :
true :
true :
true :
