-- Merging decision tree log ---
manifest
ADDED from C:\Users\mangesh\Documents\Android Projects\3D_Animation\app\src\main\AndroidManifest.xml:2:1-25:12
MERGED from [com.android.support.constraint:constraint-layout:1.0.2] C:\Users\mangesh\.gradle\caches\transforms-1\files-1.1\constraint-layout-1.0.2.aar\53e41f6db7989c18f2d3365db1e189db\AndroidManifest.xml:2:1-11:12
	package
		ADDED from C:\Users\mangesh\Documents\Android Projects\3D_Animation\app\src\main\AndroidManifest.xml:3:5-45
	xmlns:android
		ADDED from C:\Users\mangesh\Documents\Android Projects\3D_Animation\app\src\main\AndroidManifest.xml:2:11-69
application
ADDED from C:\Users\mangesh\Documents\Android Projects\3D_Animation\app\src\main\AndroidManifest.xml:5:5-20:19
MERGED from [com.android.support.constraint:constraint-layout:1.0.2] C:\Users\mangesh\.gradle\caches\transforms-1\files-1.1\constraint-layout-1.0.2.aar\53e41f6db7989c18f2d3365db1e189db\AndroidManifest.xml:9:5-20
MERGED from [com.android.support.constraint:constraint-layout:1.0.2] C:\Users\mangesh\.gradle\caches\transforms-1\files-1.1\constraint-layout-1.0.2.aar\53e41f6db7989c18f2d3365db1e189db\AndroidManifest.xml:9:5-20
	android:label
		ADDED from C:\Users\mangesh\Documents\Android Projects\3D_Animation\app\src\main\AndroidManifest.xml:8:9-41
	android:roundIcon
		ADDED from C:\Users\mangesh\Documents\Android Projects\3D_Animation\app\src\main\AndroidManifest.xml:9:9-57
	android:icon
		ADDED from C:\Users\mangesh\Documents\Android Projects\3D_Animation\app\src\main\AndroidManifest.xml:7:9-46
activity#com.astromedicomp.animation_3d.MainActivity
ADDED from C:\Users\mangesh\Documents\Android Projects\3D_Animation\app\src\main\AndroidManifest.xml:13:9-19:20
	android:name
		ADDED from C:\Users\mangesh\Documents\Android Projects\3D_Animation\app\src\main\AndroidManifest.xml:13:19-47
intent-filter#android.intent.action.MAIN+android.intent.category.LAUNCHER
ADDED from C:\Users\mangesh\Documents\Android Projects\3D_Animation\app\src\main\AndroidManifest.xml:14:13-18:29
action#android.intent.action.MAIN
ADDED from C:\Users\mangesh\Documents\Android Projects\3D_Animation\app\src\main\AndroidManifest.xml:15:17-69
	android:name
		ADDED from C:\Users\mangesh\Documents\Android Projects\3D_Animation\app\src\main\AndroidManifest.xml:15:25-66
category#android.intent.category.LAUNCHER
ADDED from C:\Users\mangesh\Documents\Android Projects\3D_Animation\app\src\main\AndroidManifest.xml:17:17-77
	android:name
		ADDED from C:\Users\mangesh\Documents\Android Projects\3D_Animation\app\src\main\AndroidManifest.xml:17:27-74
uses-sdk
ADDED from C:\Users\mangesh\Documents\Android Projects\3D_Animation\app\src\main\AndroidManifest.xml:22:3-24:32
MERGED from [com.android.support.constraint:constraint-layout:1.0.2] C:\Users\mangesh\.gradle\caches\transforms-1\files-1.1\constraint-layout-1.0.2.aar\53e41f6db7989c18f2d3365db1e189db\AndroidManifest.xml:5:5-7:41
MERGED from [com.android.support.constraint:constraint-layout:1.0.2] C:\Users\mangesh\.gradle\caches\transforms-1\files-1.1\constraint-layout-1.0.2.aar\53e41f6db7989c18f2d3365db1e189db\AndroidManifest.xml:5:5-7:41
	android:targetSdkVersion
		ADDED from C:\Users\mangesh\Documents\Android Projects\3D_Animation\app\src\main\AndroidManifest.xml:23:3-32
	android:minSdkVersion
		ADDED from C:\Users\mangesh\Documents\Android Projects\3D_Animation\app\src\main\AndroidManifest.xml:24:3-29
