^C:\USERS\MANGESH\DOCUMENTS\VISUAL STUDIO 2015\PROJECTS\DIRECTX-WINDOW\DEBUG\D3DWINDOW.OBJ
C:\USERS\MANGESH\DOCUMENTS\VISUAL STUDIO 2015\PROJECTS\DIRECTX-WINDOW\DEBUG\DIRECTX-WINDOW.ILK
C:\USERS\MANGESH\DOCUMENTS\VISUAL STUDIO 2015\PROJECTS\DIRECTX-WINDOW\DEBUG\DIRECTX-WINDOW.EXE
C:\USERS\MANGESH\DOCUMENTS\VISUAL STUDIO 2015\PROJECTS\DIRECTX-WINDOW\DEBUG\DIRECTX-WINDOW.PDB
^C:\USERS\MANGESH\DOCUMENTS\VISUAL STUDIO 2015\PROJECTS\DIRECTX-ORTHO_TRIANGLE\DEBUG\D3DWINDOW.OBJ
C:\USERS\MANGESH\DOCUMENTS\VISUAL STUDIO 2015\PROJECTS\DIRECTX-ORTHO_TRIANGLE\DEBUG\DIRECTX-WINDOW.ILK
C:\USERS\MANGESH\DOCUMENTS\VISUAL STUDIO 2015\PROJECTS\DIRECTX-ORTHO_TRIANGLE\DEBUG\DIRECTX-WINDOW.EXE
C:\USERS\MANGESH\DOCUMENTS\VISUAL STUDIO 2015\PROJECTS\DIRECTX-ORTHO_TRIANGLE\DEBUG\DIRECTX-WINDOW.PDB
