^C:\USERS\MANGESH\DOCUMENTS\VISUAL STUDIO 2015\PROJECTS\DIRECTX-COLORED_TRIANGLE\D3DWINDOW.CPP
C:\USERS\MANGESH\DOCUMENTS\VISUAL STUDIO 2015\PROJECTS\DIRECTX-COLORED_TRIANGLE\DEBUG\VC140.PDB
C:\USERS\MANGESH\DOCUMENTS\VISUAL STUDIO 2015\PROJECTS\DIRECTX-COLORED_TRIANGLE\DEBUG\VC140.IDB
C:\USERS\MANGESH\DOCUMENTS\VISUAL STUDIO 2015\PROJECTS\DIRECTX-COLORED_TRIANGLE\DEBUG\D3DWINDOW.OBJ
^C:\USERS\MANGESH\DOCUMENTS\VISUAL STUDIO 2015\PROJECTS\DIRECTX-COLORED_TRIANGLE_SQUARE\D3DWINDOW.CPP
C:\USERS\MANGESH\DOCUMENTS\VISUAL STUDIO 2015\PROJECTS\DIRECTX-COLORED_TRIANGLE_SQUARE\DEBUG\VC140.PDB
C:\USERS\MANGESH\DOCUMENTS\VISUAL STUDIO 2015\PROJECTS\DIRECTX-COLORED_TRIANGLE_SQUARE\DEBUG\VC140.IDB
C:\USERS\MANGESH\DOCUMENTS\VISUAL STUDIO 2015\PROJECTS\DIRECTX-COLORED_TRIANGLE_SQUARE\DEBUG\D3DWINDOW.OBJ
^C:\USERS\MANGESH\DOCUMENTS\VISUAL STUDIO 2015\PROJECTS\DIRECTX-3DANIMATION\D3DWINDOW.CPP
C:\USERS\MANGESH\DOCUMENTS\VISUAL STUDIO 2015\PROJECTS\DIRECTX-3DANIMATION\DEBUG\VC140.PDB
C:\USERS\MANGESH\DOCUMENTS\VISUAL STUDIO 2015\PROJECTS\DIRECTX-3DANIMATION\DEBUG\VC140.IDB
C:\USERS\MANGESH\DOCUMENTS\VISUAL STUDIO 2015\PROJECTS\DIRECTX-3DANIMATION\DEBUG\D3DWINDOW.OBJ
^C:\USERS\MANGESH\DOCUMENTS\VISUAL STUDIO 2015\PROJECTS\DIRECTX-GEOMETRYSHADER\D3DWINDOW.CPP
C:\USERS\MANGESH\DOCUMENTS\VISUAL STUDIO 2015\PROJECTS\DIRECTX-GEOMETRYSHADER\DEBUG\VC140.PDB
C:\USERS\MANGESH\DOCUMENTS\VISUAL STUDIO 2015\PROJECTS\DIRECTX-GEOMETRYSHADER\DEBUG\VC140.IDB
C:\USERS\MANGESH\DOCUMENTS\VISUAL STUDIO 2015\PROJECTS\DIRECTX-GEOMETRYSHADER\DEBUG\D3DWINDOW.OBJ
