^C:\USERS\MANGESH\DOCUMENTS\VISUAL STUDIO 2015\PROJECTS\DIRECTX-COLORED_TRIANGLE\DEBUG\D3DWINDOW.OBJ
C:\USERS\MANGESH\DOCUMENTS\VISUAL STUDIO 2015\PROJECTS\DIRECTX-COLORED_TRIANGLE\DEBUG\DIRECTX-WINDOW.ILK
C:\USERS\MANGESH\DOCUMENTS\VISUAL STUDIO 2015\PROJECTS\DIRECTX-COLORED_TRIANGLE\DEBUG\DIRECTX-WINDOW.EXE
C:\USERS\MANGESH\DOCUMENTS\VISUAL STUDIO 2015\PROJECTS\DIRECTX-COLORED_TRIANGLE\DEBUG\DIRECTX-WINDOW.PDB
^C:\USERS\MANGESH\DOCUMENTS\VISUAL STUDIO 2015\PROJECTS\DIRECTX-COLORED_TRIANGLE_SQUARE\DEBUG\D3DWINDOW.OBJ
C:\USERS\MANGESH\DOCUMENTS\VISUAL STUDIO 2015\PROJECTS\DIRECTX-COLORED_TRIANGLE_SQUARE\DEBUG\DIRECTX-WINDOW.ILK
C:\USERS\MANGESH\DOCUMENTS\VISUAL STUDIO 2015\PROJECTS\DIRECTX-COLORED_TRIANGLE_SQUARE\DEBUG\DIRECTX-WINDOW.EXE
C:\USERS\MANGESH\DOCUMENTS\VISUAL STUDIO 2015\PROJECTS\DIRECTX-COLORED_TRIANGLE_SQUARE\DEBUG\DIRECTX-WINDOW.PDB
^C:\USERS\MANGESH\DOCUMENTS\VISUAL STUDIO 2015\PROJECTS\DIRECTX-3DANIMATION\DEBUG\D3DWINDOW.OBJ
C:\USERS\MANGESH\DOCUMENTS\VISUAL STUDIO 2015\PROJECTS\DIRECTX-3DANIMATION\DEBUG\DIRECTX-WINDOW.ILK
C:\USERS\MANGESH\DOCUMENTS\VISUAL STUDIO 2015\PROJECTS\DIRECTX-3DANIMATION\DEBUG\DIRECTX-WINDOW.EXE
C:\USERS\MANGESH\DOCUMENTS\VISUAL STUDIO 2015\PROJECTS\DIRECTX-3DANIMATION\DEBUG\DIRECTX-WINDOW.PDB
^C:\USERS\MANGESH\DOCUMENTS\VISUAL STUDIO 2015\PROJECTS\DIRECTX-LIGHTONCUBE\DEBUG\D3DWINDOW.OBJ
C:\USERS\MANGESH\DOCUMENTS\VISUAL STUDIO 2015\PROJECTS\DIRECTX-LIGHTONCUBE\DEBUG\DIRECTX-WINDOW.ILK
C:\USERS\MANGESH\DOCUMENTS\VISUAL STUDIO 2015\PROJECTS\DIRECTX-LIGHTONCUBE\DEBUG\DIRECTX-WINDOW.EXE
C:\USERS\MANGESH\DOCUMENTS\VISUAL STUDIO 2015\PROJECTS\DIRECTX-LIGHTONCUBE\DEBUG\DIRECTX-WINDOW.PDB
