^C:\USERS\MANGESH\DOCUMENTS\VISUAL STUDIO 2015\PROJECTS\DIRECTX-B&W_TRIANGLE_SQUARE\DEBUG\D3DWINDOW.OBJ
C:\USERS\MANGESH\DOCUMENTS\VISUAL STUDIO 2015\PROJECTS\DIRECTX-B&W_TRIANGLE_SQUARE\DEBUG\DIRECTX-WINDOW.ILK
C:\USERS\MANGESH\DOCUMENTS\VISUAL STUDIO 2015\PROJECTS\DIRECTX-B&W_TRIANGLE_SQUARE\DEBUG\DIRECTX-WINDOW.EXE
C:\USERS\MANGESH\DOCUMENTS\VISUAL STUDIO 2015\PROJECTS\DIRECTX-B&W_TRIANGLE_SQUARE\DEBUG\DIRECTX-WINDOW.PDB
