^C:\USERS\MANGESH\DOCUMENTS\VISUAL STUDIO 2015\PROJECTS\DIRECTX-WINDOW\DEBUG\D3DWINDOW.OBJ
/OUT:"C:\USERS\MANGESH\DOCUMENTS\VISUAL STUDIO 2015\PROJECTS\DIRECTX-WINDOW\DEBUG\DIRECTX-WINDOW.EXE" /INCREMENTAL /NOLOGO KERNEL32.LIB USER32.LIB GDI32.LIB WINSPOOL.LIB COMDLG32.LIB ADVAPI32.LIB SHELL32.LIB OLE32.LIB OLEAUT32.LIB UUID.LIB ODBC32.LIB ODBCCP32.LIB /MANIFEST /MANIFESTUAC:"level='asInvoker' uiAccess='false'" /manifest:embed /DEBUG /PDB:"C:\USERS\MANGESH\DOCUMENTS\VISUAL STUDIO 2015\PROJECTS\DIRECTX-WINDOW\DEBUG\DIRECTX-WINDOW.PDB" /SUBSYSTEM:WINDOWS /TLBID:1 /DYNAMICBASE /NXCOMPAT /IMPLIB:"C:\USERS\MANGESH\DOCUMENTS\VISUAL STUDIO 2015\PROJECTS\DIRECTX-WINDOW\DEBUG\DIRECTX-WINDOW.LIB" /MACHINE:X86 DEBUG\D3DWINDOW.OBJ
^C:\USERS\MANGESH\DOCUMENTS\VISUAL STUDIO 2015\PROJECTS\DIRECTX-ORTHO_TRIANGLE\DEBUG\D3DWINDOW.OBJ
/OUT:"C:\USERS\MANGESH\DOCUMENTS\VISUAL STUDIO 2015\PROJECTS\DIRECTX-ORTHO_TRIANGLE\DEBUG\DIRECTX-WINDOW.EXE" /INCREMENTAL /NOLOGO KERNEL32.LIB USER32.LIB GDI32.LIB WINSPOOL.LIB COMDLG32.LIB ADVAPI32.LIB SHELL32.LIB OLE32.LIB OLEAUT32.LIB UUID.LIB ODBC32.LIB ODBCCP32.LIB /MANIFEST /MANIFESTUAC:"level='asInvoker' uiAccess='false'" /manifest:embed /DEBUG /PDB:"C:\USERS\MANGESH\DOCUMENTS\VISUAL STUDIO 2015\PROJECTS\DIRECTX-ORTHO_TRIANGLE\DEBUG\DIRECTX-WINDOW.PDB" /SUBSYSTEM:WINDOWS /TLBID:1 /DYNAMICBASE /NXCOMPAT /IMPLIB:"C:\USERS\MANGESH\DOCUMENTS\VISUAL STUDIO 2015\PROJECTS\DIRECTX-ORTHO_TRIANGLE\DEBUG\DIRECTX-WINDOW.LIB" /MACHINE:X86 DEBUG\D3DWINDOW.OBJ
^C:\USERS\MANGESH\DOCUMENTS\VISUAL STUDIO 2015\PROJECTS\DIRECTX-PERSPECTIVE_TRIANGLE\DEBUG\D3DWINDOW.OBJ
/OUT:"C:\USERS\MANGESH\DOCUMENTS\VISUAL STUDIO 2015\PROJECTS\DIRECTX-PERSPECTIVE_TRIANGLE\DEBUG\DIRECTX-WINDOW.EXE" /INCREMENTAL /NOLOGO KERNEL32.LIB USER32.LIB GDI32.LIB WINSPOOL.LIB COMDLG32.LIB ADVAPI32.LIB SHELL32.LIB OLE32.LIB OLEAUT32.LIB UUID.LIB ODBC32.LIB ODBCCP32.LIB /MANIFEST /MANIFESTUAC:"level='asInvoker' uiAccess='false'" /manifest:embed /DEBUG /PDB:"C:\USERS\MANGESH\DOCUMENTS\VISUAL STUDIO 2015\PROJECTS\DIRECTX-PERSPECTIVE_TRIANGLE\DEBUG\DIRECTX-WINDOW.PDB" /SUBSYSTEM:WINDOWS /TLBID:1 /DYNAMICBASE /NXCOMPAT /IMPLIB:"C:\USERS\MANGESH\DOCUMENTS\VISUAL STUDIO 2015\PROJECTS\DIRECTX-PERSPECTIVE_TRIANGLE\DEBUG\DIRECTX-WINDOW.LIB" /MACHINE:X86 DEBUG\D3DWINDOW.OBJ
^C:\USERS\MANGESH\DOCUMENTS\VISUAL STUDIO 2015\PROJECTS\DIRECTX-B&W_TRIANGLE_SQUARE\DEBUG\D3DWINDOW.OBJ
/OUT:"C:\USERS\MANGESH\DOCUMENTS\VISUAL STUDIO 2015\PROJECTS\DIRECTX-B&W_TRIANGLE_SQUARE\DEBUG\DIRECTX-WINDOW.EXE" /INCREMENTAL /NOLOGO KERNEL32.LIB USER32.LIB GDI32.LIB WINSPOOL.LIB COMDLG32.LIB ADVAPI32.LIB SHELL32.LIB OLE32.LIB OLEAUT32.LIB UUID.LIB ODBC32.LIB ODBCCP32.LIB /MANIFEST /MANIFESTUAC:"level='asInvoker' uiAccess='false'" /manifest:embed /DEBUG /PDB:"C:\USERS\MANGESH\DOCUMENTS\VISUAL STUDIO 2015\PROJECTS\DIRECTX-B&W_TRIANGLE_SQUARE\DEBUG\DIRECTX-WINDOW.PDB" /SUBSYSTEM:WINDOWS /TLBID:1 /DYNAMICBASE /NXCOMPAT /IMPLIB:"C:\USERS\MANGESH\DOCUMENTS\VISUAL STUDIO 2015\PROJECTS\DIRECTX-B&W_TRIANGLE_SQUARE\DEBUG\DIRECTX-WINDOW.LIB" /MACHINE:X86 DEBUG\D3DWINDOW.OBJ
